{
  "name": "The Evergreen - Encounters",
  "_id": "kjJ2eZxRGI6pezoU",
  "img": "icons/svg/d20-grey.svg",
  "description": "",
  "results": [
    {
      "type": "text",
      "weight": 1,
      "range": [
        1,
        3
      ],
      "drawn": false,
      "_id": "e8FrPDwXNjrr3tZa",
      "text": "The party has angered one of the forest protectors. [[/r 1d4]] earth elementals attack the party",
      "img": "icons/svg/d20-black.svg",
      "documentId": null,
      "flags": {},
      "_key": "!tables.results!kjJ2eZxRGI6pezoU.e8FrPDwXNjrr3tZa"
    },
    {
      "type": "text",
      "weight": 1,
      "range": [
        4,
        6
      ],
      "drawn": false,
      "_id": "eh9o6dlPkv0VV2d3",
      "text": "[[/r 2d8]] elves surround the party to question them. They wish to escort the group back to their camp. If the party refuses, the elves will attempt to arrest them.",
      "img": "icons/svg/d20-black.svg",
      "documentId": null,
      "flags": {},
      "_key": "!tables.results!kjJ2eZxRGI6pezoU.eh9o6dlPkv0VV2d3"
    },
    {
      "type": "text",
      "weight": 1,
      "range": [
        7,
        8
      ],
      "drawn": false,
      "_id": "YGDJGzX6nc1hXJpx",
      "text": "The group finds several statues in a clearing. All of them are in various states of distress. It’s as if they were trying to escape something.",
      "img": "icons/svg/d20-black.svg",
      "documentId": null,
      "flags": {},
      "_key": "!tables.results!kjJ2eZxRGI6pezoU.YGDJGzX6nc1hXJpx"
    },
    {
      "type": "text",
      "weight": 1,
      "range": [
        9,
        10
      ],
      "drawn": false,
      "_id": "YFEmHUefmB9BI3MT",
      "text": "[[/r 1d4]] dire bears are in the path just up ahead. A bit of stealth might help the party avoid them.",
      "img": "icons/svg/d20-black.svg",
      "documentId": null,
      "flags": {},
      "_key": "!tables.results!kjJ2eZxRGI6pezoU.YFEmHUefmB9BI3MT"
    },
    {
      "type": "text",
      "weight": 1,
      "range": [
        11,
        12
      ],
      "drawn": false,
      "_id": "0p4FGgqSdLMAlXdH",
      "text": "The hunter Eada Arafiel stops the party and warns them of dangerous wild animals up ahead (see Eada Arafiel, page 329).",
      "img": "icons/svg/d20-black.svg",
      "documentId": null,
      "flags": {},
      "_key": "!tables.results!kjJ2eZxRGI6pezoU.0p4FGgqSdLMAlXdH"
    },
    {
      "type": "text",
      "weight": 1,
      "range": [
        13,
        14
      ],
      "drawn": false,
      "_id": "xhED9xAO6sxWd9Ke",
      "text": "The party has been offered an escort through the more dangerous portions of The Evergreen by a hermit. While this person looks rough around the edges, they do seem to know the area well.",
      "img": "icons/svg/d20-black.svg",
      "documentId": null,
      "flags": {},
      "_key": "!tables.results!kjJ2eZxRGI6pezoU.xhED9xAO6sxWd9Ke"
    },
    {
      "type": "text",
      "weight": 1,
      "range": [
        15,
        16
      ],
      "drawn": false,
      "_id": "GJtjYD05sGHD8mgt",
      "text": "A group of Moz’zogg orcs are stalking their way through the forest. It looks like the party has the drop on them. Attacking them could start a much larger war, but should the party allow them to roam free where they don’t belong?",
      "img": "icons/svg/d20-black.svg",
      "documentId": null,
      "flags": {},
      "_key": "!tables.results!kjJ2eZxRGI6pezoU.GJtjYD05sGHD8mgt"
    },
    {
      "type": "text",
      "weight": 1,
      "range": [
        17,
        18
      ],
      "drawn": false,
      "_id": "qwPx06yjdC2jRK2S",
      "text": "A large group of druids are making their way south to The Scar. They stop and offer a blessing and magical aid to the party.",
      "img": "icons/svg/d20-black.svg",
      "documentId": null,
      "flags": {},
      "_key": "!tables.results!kjJ2eZxRGI6pezoU.qwPx06yjdC2jRK2S"
    },
    {
      "type": "text",
      "weight": 1,
      "range": [
        19,
        20
      ],
      "drawn": false,
      "_id": "74MKM7HTPZjXIaiS",
      "text": "The group has stumbled upon an extremely rare creature called Bruddak. This might be the only existing member of its species (see Bruddak, page 256).",
      "img": "icons/svg/d20-black.svg",
      "documentId": null,
      "flags": {},
      "_key": "!tables.results!kjJ2eZxRGI6pezoU.74MKM7HTPZjXIaiS"
    }
  ],
  "replacement": true,
  "displayRoll": false,
  "folder": "ojefyrhAG6k7vcJp",
  "sort": 100000,
  "ownership": {
    "default": 0
  },
  "flags": {},
  "_stats": {
    "duplicateSource": null,
    "coreVersion": "12.331",
    "systemId": "dnd5e",
    "systemVersion": "3.2.1",
    "createdTime": 1719246207175,
    "modifiedTime": 1727866884349,
    "lastModifiedBy": "jRuzd19UqO72fSRx",
    "compendiumSource": null
  },
  "formula": "1d20",
  "_key": "!tables!kjJ2eZxRGI6pezoU"
}
