{
  "name": "Travel Dice",
  "sorting": "a",
  "folder": null,
  "type": "RollTable",
  "_id": "JZumvK9GRLz8zCuq",
  "description": "",
  "sort": 0,
  "color": null,
  "flags": {},
  "_stats": {
    "duplicateSource": null,
    "coreVersion": "12.327",
    "systemId": "dnd5e",
    "systemVersion": "3.2.1",
    "createdTime": 1719246225315,
    "modifiedTime": 1719246225315,
    "lastModifiedBy": "dnd5ebuilder0000"
  },
  "_key": "!folders!JZumvK9GRLz8zCuq"
}
