{
  "folder": "JZumvK9GRLz8zCuq",
  "name": "Yemgar Swamp - Travel Die",
  "_id": "pwvFExk4DM3MdrHf",
  "img": "icons/svg/d20-grey.svg",
  "description": "",
  "results": [
    {
      "type": "text",
      "weight": 1,
      "range": [
        1,
        3
      ],
      "drawn": false,
      "_id": "sZT8wXGQ8QEj5ZU7",
      "text": "Three hags are standing near a campfire. The party can hear a crying child in a cage near them.",
      "img": "icons/svg/d20-black.svg",
      "documentId": null,
      "flags": {},
      "_key": "!tables.results!pwvFExk4DM3MdrHf.sZT8wXGQ8QEj5ZU7"
    },
    {
      "type": "text",
      "weight": 1,
      "range": [
        4,
        6
      ],
      "drawn": false,
      "_id": "icBF1RQQNKQ0gDbR",
      "text": "That evening, the party feels a deep chill enter their bones as the moon comes out in full. This portion of the swamp seems to be trying to tell them something, perhaps a warning.",
      "img": "icons/svg/d20-black.svg",
      "documentId": null,
      "flags": {},
      "_key": "!tables.results!pwvFExk4DM3MdrHf.icBF1RQQNKQ0gDbR"
    },
    {
      "type": "text",
      "weight": 1,
      "range": [
        7,
        10
      ],
      "drawn": false,
      "_id": "K1hApaGktUscrKn8",
      "text": "A deep splash is heard to the party’s left, almost as if someone tossed a rather large rock into the stagnant water.",
      "img": "icons/svg/d20-black.svg",
      "documentId": null,
      "flags": {},
      "_key": "!tables.results!pwvFExk4DM3MdrHf.K1hApaGktUscrKn8"
    },
    {
      "type": "text",
      "weight": 1,
      "range": [
        11,
        14
      ],
      "drawn": false,
      "_id": "4GiRi24uty01ReqO",
      "text": "A corpse is twisting in the wind as it hangs from a rope tied around its neck. There appears to be something gripped in its left hand, shining when the light touches it.",
      "img": "icons/svg/d20-black.svg",
      "documentId": null,
      "flags": {},
      "_key": "!tables.results!pwvFExk4DM3MdrHf.4GiRi24uty01ReqO"
    },
    {
      "type": "text",
      "weight": 1,
      "range": [
        15,
        17
      ],
      "drawn": false,
      "_id": "m10FI2yg1YuqXzTP",
      "text": "Two swords are crossed over one another, marking some long lost path in the swamp. It’s completely overgrown and will take some extra time to navigate. What could be within?",
      "img": "icons/svg/d20-black.svg",
      "documentId": null,
      "flags": {},
      "_key": "!tables.results!pwvFExk4DM3MdrHf.m10FI2yg1YuqXzTP"
    },
    {
      "type": "text",
      "weight": 1,
      "range": [
        18,
        20
      ],
      "drawn": false,
      "_id": "omlFBJfnYrgrXK5g",
      "text": "The party finds a small girl in the swamp that is clearly lost. She’s upset and tells the group that her settlement is to the east. She will cling to the party and even try to hug them for dear life. If the party chooses to take her there, they find no settlement and the girl disappears.",
      "img": "icons/svg/d20-black.svg",
      "documentId": null,
      "flags": {},
      "_key": "!tables.results!pwvFExk4DM3MdrHf.omlFBJfnYrgrXK5g"
    }
  ],
  "replacement": true,
  "displayRoll": true,
  "sort": 0,
  "ownership": {
    "default": 0
  },
  "flags": {},
  "_stats": {
    "duplicateSource": null,
    "coreVersion": "12.327",
    "systemId": "dnd5e",
    "systemVersion": "3.2.1",
    "createdTime": 1719246725335,
    "modifiedTime": 1719246806604,
    "lastModifiedBy": "dnd5ebuilder0000"
  },
  "formula": "1d20",
  "_key": "!tables!pwvFExk4DM3MdrHf"
}
