{
  "name": "Augments",
  "sorting": "a",
  "folder": null,
  "type": "Item",
  "_id": "O4rooGZ1jO1mS37M",
  "description": "",
  "sort": 0,
  "color": null,
  "flags": {},
  "_stats": {
    "duplicateSource": null,
    "coreVersion": "12.327",
    "systemId": "dnd5e",
    "systemVersion": "3.2.1",
    "createdTime": 1719304061992,
    "modifiedTime": 1719304061992,
    "lastModifiedBy": "dnd5ebuilder0000"
  },
  "_key": "!folders!O4rooGZ1jO1mS37M"
}
