{
  "folder": "ID2tNmEoo2bO5TwV",
  "name": "Better than You",
  "type": "feat",
  "_id": "1Swwc7QQ73ZYD6c2",
  "img": "systems/dnd5e/icons/svg/items/feature.svg",
  "system": {
    "description": {
      "value": "<p>You now have a resistance to bludgeoning, piercing, and slashing damage from nonmagical weapons. You also gain a total of +10 to speed (instead of the +5) and +1 to initiative.</p>",
      "chat": ""
    },
    "source": {
      "custom": "",
      "book": "AGTE",
      "page": "251",
      "license": ""
    },
    "activation": {
      "type": "",
      "cost": null,
      "condition": ""
    },
    "duration": {
      "value": "",
      "units": ""
    },
    "cover": null,
    "crewed": false,
    "target": {
      "value": "",
      "width": null,
      "units": "",
      "type": "",
      "prompt": true
    },
    "range": {
      "value": null,
      "long": null,
      "units": ""
    },
    "uses": {
      "value": null,
      "max": "",
      "per": null,
      "recovery": "",
      "prompt": true
    },
    "consume": {
      "type": "",
      "target": null,
      "amount": null,
      "scale": false
    },
    "ability": null,
    "actionType": "",
    "attack": {
      "bonus": "",
      "flat": false
    },
    "chatFlavor": "",
    "critical": {
      "threshold": null,
      "damage": ""
    },
    "damage": {
      "parts": [],
      "versatile": ""
    },
    "enchantment": null,
    "formula": "",
    "save": {
      "ability": "",
      "dc": null,
      "scaling": "spell"
    },
    "summons": null,
    "type": {
      "value": "",
      "subtype": ""
    },
    "prerequisites": {
      "level": null
    },
    "properties": [],
    "requirements": "Vampire 20",
    "recharge": {
      "value": null,
      "charged": false
    }
  },
  "effects": [
    {
      "name": "Better than You",
      "origin": "Compendium.theria-ellara.theria-ellara-classes.Item.1Swwc7QQ73ZYD6c2",
      "duration": {
        "rounds": null,
        "startTime": null,
        "seconds": null,
        "combat": null,
        "turns": null,
        "startRound": null,
        "startTurn": null
      },
      "disabled": false,
      "flags": {
        "dae": {
          "stackable": "noneName",
          "showIcon": false,
          "durationExpression": "",
          "specialDuration": []
        }
      },
      "img": "systems/dnd5e/icons/svg/items/feature.svg",
      "_id": "tQsV0llYbqooYXJf",
      "type": "base",
      "system": {},
      "changes": [
        {
          "key": "system.traits.dr.value",
          "mode": 2,
          "value": "piercing",
          "priority": 20
        },
        {
          "key": "system.traits.dr.value",
          "mode": 2,
          "value": "bludgeoning",
          "priority": 20
        },
        {
          "key": "system.traits.dr.value",
          "mode": 2,
          "value": "slashing",
          "priority": 20
        },
        {
          "key": "system.attributes.movement.land",
          "mode": 2,
          "value": "5",
          "priority": 20
        },
        {
          "key": "system.attributes.init.bonus",
          "mode": 2,
          "value": "1",
          "priority": 20
        }
      ],
      "description": "",
      "tint": "#ffffff",
      "transfer": true,
      "statuses": [],
      "sort": 0,
      "_stats": {
        "compendiumSource": null,
        "duplicateSource": null,
        "coreVersion": "12.327",
        "systemId": "dnd5e",
        "systemVersion": "3.2.1",
        "createdTime": 1719382963972,
        "modifiedTime": 1719383102356,
        "lastModifiedBy": "dnd5ebuilder0000"
      },
      "_key": "!items.effects!1Swwc7QQ73ZYD6c2.tQsV0llYbqooYXJf"
    }
  ],
  "sort": 0,
  "ownership": {
    "default": 0
  },
  "flags": {},
  "_stats": {
    "duplicateSource": null,
    "coreVersion": "12.327",
    "systemId": "dnd5e",
    "systemVersion": "3.2.1",
    "createdTime": 1719382944476,
    "modifiedTime": 1719382961610,
    "lastModifiedBy": "dnd5ebuilder0000"
  },
  "_key": "!items!1Swwc7QQ73ZYD6c2"
}
