{
  "folder": "PlU8ha8Svaae1FLD",
  "name": "Emotional Impact",
  "type": "feat",
  "_id": "xXRU5TVE5LXYxegI",
  "img": "systems/dnd5e/icons/svg/items/feature.svg",
  "system": {
    "description": {
      "value": "<p>At 1st level, your ability to manifest your emotions physically gives you an edge when using unarmed strikes.</p><p>You gain the following benefits while you are unarmed and you aren’t wearing a shield:</p><ul><li><p>You can use Charisma instead of Strength for the attack and damage rolls of your Force Punch and Force Blast.</p></li><li><p>Your Force Punch (unarmed strike) and Force Blast have a base of 1d6 damage.</p></li></ul>",
      "chat": ""
    },
    "source": {
      "book": "AGTE",
      "page": "230",
      "custom": "",
      "license": ""
    },
    "activation": {
      "type": "special",
      "cost": null,
      "condition": ""
    },
    "duration": {
      "value": "",
      "units": ""
    },
    "cover": null,
    "crewed": false,
    "target": {
      "value": "",
      "width": null,
      "units": "",
      "type": "",
      "prompt": true
    },
    "range": {
      "value": null,
      "long": null,
      "units": ""
    },
    "uses": {
      "value": 1,
      "max": "",
      "per": "charges",
      "recovery": "",
      "prompt": true
    },
    "consume": {
      "type": "attribute",
      "target": "",
      "amount": null,
      "scale": false
    },
    "ability": null,
    "actionType": "",
    "attack": {
      "bonus": "",
      "flat": false
    },
    "chatFlavor": "",
    "critical": {
      "threshold": null,
      "damage": ""
    },
    "damage": {
      "parts": [],
      "versatile": ""
    },
    "enchantment": null,
    "formula": "",
    "save": {
      "ability": "",
      "dc": null,
      "scaling": "spell"
    },
    "summons": null,
    "type": {
      "value": "class",
      "subtype": ""
    },
    "prerequisites": {
      "level": null
    },
    "properties": [],
    "requirements": "Endurant 1",
    "recharge": {
      "value": null,
      "charged": false
    }
  },
  "effects": [],
  "sort": 0,
  "ownership": {
    "default": 0,
    "jRuzd19UqO72fSRx": 3
  },
  "flags": {},
  "_stats": {
    "compendiumSource": null,
    "duplicateSource": null,
    "coreVersion": "12.327",
    "systemId": "dnd5e",
    "systemVersion": "3.2.1",
    "createdTime": 1719513084041,
    "modifiedTime": 1719513892249,
    "lastModifiedBy": "jRuzd19UqO72fSRx"
  },
  "_key": "!items!xXRU5TVE5LXYxegI"
}
