{
  "folder": "PlU8ha8Svaae1FLD",
  "name": "In Tune",
  "type": "feat",
  "_id": "S2nHF6gpFSTZkBgo",
  "img": "systems/dnd5e/icons/svg/items/feature.svg",
  "system": {
    "description": {
      "value": "<p>Starting at 5th level, you connect further with the emotional well. Your base force punch and force blast damage increases to 1d8.</p><p>At level 11, this increases to 1d10.</p><p>At level 17, this increases to 1d12.</p>",
      "chat": ""
    },
    "source": {
      "custom": "",
      "book": "AGTE",
      "page": "231",
      "license": ""
    },
    "activation": {
      "type": "",
      "cost": null,
      "condition": ""
    },
    "duration": {
      "value": "",
      "units": ""
    },
    "cover": null,
    "crewed": false,
    "target": {
      "value": "",
      "width": null,
      "units": "",
      "type": "",
      "prompt": true
    },
    "range": {
      "value": null,
      "long": null,
      "units": ""
    },
    "uses": {
      "value": null,
      "max": "",
      "per": null,
      "recovery": "",
      "prompt": true
    },
    "consume": {
      "type": "",
      "target": null,
      "amount": null,
      "scale": false
    },
    "ability": null,
    "actionType": "",
    "attack": {
      "bonus": "",
      "flat": false
    },
    "chatFlavor": "",
    "critical": {
      "threshold": null,
      "damage": ""
    },
    "damage": {
      "parts": [],
      "versatile": ""
    },
    "enchantment": null,
    "formula": "",
    "save": {
      "ability": "",
      "dc": null,
      "scaling": "spell"
    },
    "summons": null,
    "type": {
      "value": "",
      "subtype": ""
    },
    "prerequisites": {
      "level": null
    },
    "properties": [],
    "requirements": "Endurant 5",
    "recharge": {
      "value": null,
      "charged": false
    }
  },
  "effects": [],
  "sort": 0,
  "ownership": {
    "default": 0,
    "jRuzd19UqO72fSRx": 3
  },
  "flags": {},
  "_stats": {
    "compendiumSource": null,
    "duplicateSource": null,
    "coreVersion": "12.327",
    "systemId": "dnd5e",
    "systemVersion": "3.2.1",
    "createdTime": 1719706490373,
    "modifiedTime": 1719710276256,
    "lastModifiedBy": "jRuzd19UqO72fSRx"
  },
  "_key": "!items!S2nHF6gpFSTZkBgo"
}
