{
  "name": "Racial Traits",
  "sorting": "a",
  "folder": null,
  "type": "Item",
  "_id": "Z1OVNEm7CzZRAd9F",
  "description": "",
  "sort": 0,
  "color": null,
  "flags": {},
  "_stats": {
    "compendiumSource": null,
    "duplicateSource": null,
    "coreVersion": "12.327",
    "systemId": "dnd5e",
    "systemVersion": "3.2.1",
    "createdTime": 1719385504074,
    "modifiedTime": 1719385504074,
    "lastModifiedBy": "jRuzd19UqO72fSRx"
  },
  "_key": "!folders!Z1OVNEm7CzZRAd9F"
}
