{
  "name": "Cryptozoologist",
  "type": "background",
  "_id": "gbRhsfAPRHktbw4K",
  "img": "systems/dnd5e/icons/svg/items/background.svg",
  "system": {
    "description": {
      "value": "<p>You are fascinated with the discovery of the rarest creatures on the planet. There isn’t enough known about them and you won’t be satisfied until you’ve studied and documented them all.</p>",
      "chat": ""
    },
    "source": {
      "book": "AGTE",
      "page": "210",
      "custom": "",
      "license": ""
    },
    "startingEquipment": [
      {
        "type": "linked",
        "count": null,
        "key": "Compendium.dnd5e.items.Item.fC0lFK8P4RuhpfaU",
        "requiresProficiency": false,
        "_id": "RqbpoJoNvo5IYjGq",
        "group": "",
        "sort": 100000
      }
    ],
    "identifier": "",
    "advancement": [
      {
        "_id": "REKd56puGLcQbll9",
        "type": "Trait",
        "configuration": {
          "mode": "default",
          "allowReplacements": false,
          "grants": [
            "skills:nat",
            "skills:sur"
          ],
          "choices": [],
          "hint": ""
        },
        "value": {
          "chosen": []
        },
        "level": 0,
        "title": ""
      },
      {
        "_id": "FVy8Xo1LJTA93Gj9",
        "type": "Trait",
        "configuration": {
          "mode": "default",
          "allowReplacements": false,
          "grants": [
            "tool:art:cartographer"
          ],
          "choices": [],
          "hint": ""
        },
        "value": {
          "chosen": []
        },
        "level": 0,
        "title": ""
      },
      {
        "_id": "xfeEBPek0GjrO0ij",
        "type": "ItemGrant",
        "configuration": {
          "items": [
            {
              "optional": false,
              "uuid": "Compendium.theria-ellara.theria-ellara-backgrounds.Item.kWmCs7eVxCpKsBqz"
            }
          ],
          "optional": false,
          "spell": null
        },
        "value": {},
        "level": 0,
        "title": "Feature"
      }
    ]
  },
  "effects": [],
  "folder": null,
  "sort": 0,
  "ownership": {
    "default": 0,
    "7AQaUVDoHuZUwVGK": 3
  },
  "flags": {},
  "_stats": {
    "compendiumSource": null,
    "duplicateSource": null,
    "coreVersion": "12.327",
    "systemId": "dnd5e",
    "systemVersion": "3.2.1",
    "createdTime": 1719297580851,
    "modifiedTime": 1719298024655,
    "lastModifiedBy": "7AQaUVDoHuZUwVGK"
  },
  "_key": "!items!gbRhsfAPRHktbw4K"
}
