{
  "name": "Finding Yourself",
  "type": "background",
  "_id": "EtbZCabneua5qYyK",
  "img": "systems/dnd5e/icons/svg/items/background.svg",
  "system": {
    "description": {
      "value": "<p>Throughout your life, you’ve known something about yourself to be true that others didn’t. Your body did not match up to the version of yourself that existed in your heart. Maybe those around you were understanding, or maybe they were not. Either way you had to hide this truth about yourself for too long, and either you have now begun living the life you were always meant to, or you plan to do so by setting out into the world and making that happen.</p>",
      "chat": ""
    },
    "source": {
      "book": "AGTE",
      "page": "211",
      "custom": "",
      "license": ""
    },
    "startingEquipment": [
      {
        "type": "tool",
        "count": null,
        "key": "art",
        "requiresProficiency": false,
        "_id": "eJrGH3UnpDyszSmZ",
        "group": "",
        "sort": 100000
      },
      {
        "type": "linked",
        "count": null,
        "key": "Compendium.dnd5e.items.Item.SsAmWV6YBqeOFihT",
        "requiresProficiency": false,
        "_id": "5MYtqCmPxwti0b8J",
        "group": "",
        "sort": 200000
      }
    ],
    "identifier": "",
    "advancement": [
      {
        "_id": "gkVPuIKxMeeHsClx",
        "type": "Trait",
        "configuration": {
          "mode": "default",
          "allowReplacements": false,
          "grants": [
            "skills:ins",
            "skills:per"
          ],
          "choices": [],
          "hint": ""
        },
        "value": {
          "chosen": []
        },
        "level": 0,
        "title": ""
      },
      {
        "_id": "iX5Kc6pnwUUcatjh",
        "type": "Trait",
        "configuration": {
          "mode": "default",
          "allowReplacements": false,
          "grants": [],
          "choices": [
            {
              "count": 1,
              "pool": [
                "tool:*"
              ]
            }
          ],
          "hint": ""
        },
        "value": {
          "chosen": []
        },
        "level": 0,
        "title": ""
      },
      {
        "_id": "KWywELQ8dCPbUHfW",
        "type": "ItemGrant",
        "configuration": {
          "items": [
            {
              "uuid": "Compendium.theria-ellara.theria-ellara-backgrounds.Item.vXQJijiEQNKZcOQ0",
              "optional": false
            }
          ],
          "optional": false,
          "spell": null
        },
        "value": {},
        "level": 0,
        "title": "Feature"
      }
    ]
  },
  "effects": [],
  "folder": null,
  "sort": 0,
  "ownership": {
    "default": 0,
    "7AQaUVDoHuZUwVGK": 3
  },
  "flags": {},
  "_stats": {
    "compendiumSource": null,
    "duplicateSource": null,
    "coreVersion": "12.327",
    "systemId": "dnd5e",
    "systemVersion": "3.2.1",
    "createdTime": 1719299085561,
    "modifiedTime": 1719299153981,
    "lastModifiedBy": "7AQaUVDoHuZUwVGK"
  },
  "_key": "!items!EtbZCabneua5qYyK"
}
