{
  "folder": "EgIF0TCAjT2FOJ8n",
  "name": "Glimpse of the Past",
  "type": "feat",
  "_id": "agiE5bgxGaVYgHMn",
  "img": "systems/dnd5e/icons/svg/items/feature.svg",
  "system": {
    "description": {
      "value": "<p>You have excellent recall of the events that took place in your original time, provided that you know about them. You can be considered an expert in things such as clothing styles, recipes, and slang from that time.</p><p></p><table><tbody><tr><td><p><strong>d6</strong></p></td><td><p><strong>Suggested Characteristics</strong></p></td></tr><tr><td><p>1</p></td><td><p>Most, if not all, of my friends and family are dead.</p></td></tr><tr><td><p>2</p></td><td><p>Some of my opinions and beliefs are considered “dated.”</p></td></tr><tr><td><p>3</p></td><td><p>My fashion sense is very dated and I rarely fit in with everyone else.</p></td></tr><tr><td><p>4</p></td><td><p>Social customs have changed since my time and I seem awkward in most situations, but at parties, I’m a novelty.</p></td></tr><tr><td><p>5</p></td><td><p>I invested in a new trade route during my time and now it’s flourishing. I might have a lot of gold coming my way if I can convince those in control to give it up.</p></td></tr><tr><td><p>6</p></td><td><p>My time displacement has given me a unique perspective on the world around me and I am sought often for my counsel and wisdom.</p></td></tr></tbody></table>",
      "chat": ""
    },
    "source": {
      "custom": "",
      "book": "AGTE",
      "page": "209",
      "license": ""
    },
    "activation": {
      "type": "",
      "cost": null,
      "condition": ""
    },
    "duration": {
      "value": "",
      "units": ""
    },
    "cover": null,
    "crewed": false,
    "target": {
      "value": "",
      "width": null,
      "units": "",
      "type": "",
      "prompt": true
    },
    "range": {
      "value": null,
      "long": null,
      "units": ""
    },
    "uses": {
      "value": null,
      "max": "",
      "per": null,
      "recovery": "",
      "prompt": true
    },
    "consume": {
      "type": "attribute",
      "target": "",
      "amount": null,
      "scale": false
    },
    "ability": null,
    "actionType": "",
    "attack": {
      "bonus": "",
      "flat": false
    },
    "chatFlavor": "",
    "critical": {
      "threshold": null,
      "damage": ""
    },
    "damage": {
      "parts": [],
      "versatile": ""
    },
    "enchantment": null,
    "formula": "",
    "save": {
      "ability": "",
      "dc": null,
      "scaling": "spell"
    },
    "summons": null,
    "type": {
      "value": "background",
      "subtype": ""
    },
    "prerequisites": {
      "level": null
    },
    "properties": [],
    "requirements": "",
    "recharge": {
      "value": null,
      "charged": false
    }
  },
  "effects": [],
  "sort": 0,
  "ownership": {
    "default": 0,
    "7AQaUVDoHuZUwVGK": 3
  },
  "flags": {},
  "_stats": {
    "compendiumSource": null,
    "duplicateSource": null,
    "coreVersion": "12.327",
    "systemId": "dnd5e",
    "systemVersion": "3.2.1",
    "createdTime": 1719259862360,
    "modifiedTime": 1719304282630,
    "lastModifiedBy": "7AQaUVDoHuZUwVGK"
  },
  "_key": "!items!agiE5bgxGaVYgHMn"
}
