{
  "folder": "EgIF0TCAjT2FOJ8n",
  "name": "Nothing but a Good Time",
  "type": "feat",
  "_id": "xstgejnAGsqyjImW",
  "img": "systems/dnd5e/icons/svg/items/feature.svg",
  "system": {
    "description": {
      "value": "<p>You have an uncanny ability to drink strong alcohol and party the night away. While the sun is down, you gain an advantage to all Constitution saves and become more charming to those around you, gaining advantage on Charisma (Persuasion) rolls while in a party atmosphere. If you do manage to get drunk, you may add +2 to your Charisma (Performance) checks while inebriated.</p><p></p><table><tbody><tr><td><p><strong>d6</strong></p></td><td><p><strong>Suggested Characteristics</strong></p></td></tr><tr><td><p>1</p></td><td><p>I have some health complications from years of partying on the road. I might have a drug dependency issue or a sexually transmitted illness.</p></td></tr><tr><td><p>2</p></td><td><p>I blew all of my gold when I was in my prime. I now must keep touring to make ends meet.</p></td></tr><tr><td><p>3</p></td><td><p>I am infamous for wrecking more than one inn, so innkeepers are wary of renting me a room.</p></td></tr><tr><td><p>4</p></td><td><p>Some people think I am the new up and coming Duncan, others just want Duncan back.</p></td></tr><tr><td><p>5</p></td><td><p>I can walk into almost any inn or tavern and people will know my name. I can always count on a free drink.</p></td></tr><tr><td><p>6</p></td><td><p>People tend to fawn over me wherever I go and will do almost anything to be my friend.</p></td></tr></tbody></table>",
      "chat": ""
    },
    "source": {
      "custom": ""
    },
    "activation": {
      "type": "",
      "cost": null,
      "condition": ""
    },
    "duration": {
      "value": "",
      "units": ""
    },
    "cover": null,
    "crewed": false,
    "target": {
      "value": "",
      "width": null,
      "units": "",
      "type": "",
      "prompt": true
    },
    "range": {
      "value": null,
      "long": null,
      "units": ""
    },
    "uses": {
      "value": null,
      "max": "",
      "per": null,
      "recovery": "",
      "prompt": true
    },
    "consume": {
      "type": "attribute",
      "target": "",
      "amount": null,
      "scale": false
    },
    "ability": null,
    "actionType": "",
    "attack": {
      "bonus": "",
      "flat": false
    },
    "chatFlavor": "",
    "critical": {
      "threshold": null,
      "damage": ""
    },
    "damage": {
      "parts": [],
      "versatile": ""
    },
    "enchantment": null,
    "formula": "",
    "save": {
      "ability": "",
      "dc": null,
      "scaling": "spell"
    },
    "summons": null,
    "type": {
      "value": "background",
      "subtype": ""
    },
    "prerequisites": {
      "level": null
    },
    "properties": [],
    "requirements": "",
    "recharge": {
      "value": null,
      "charged": false
    }
  },
  "effects": [],
  "sort": 0,
  "ownership": {
    "default": 0,
    "7AQaUVDoHuZUwVGK": 3
  },
  "flags": {},
  "_stats": {
    "compendiumSource": null,
    "duplicateSource": null,
    "coreVersion": "12.327",
    "systemId": "dnd5e",
    "systemVersion": "3.2.1",
    "createdTime": 1719296561271,
    "modifiedTime": 1719304313892,
    "lastModifiedBy": "7AQaUVDoHuZUwVGK"
  },
  "_key": "!items!xstgejnAGsqyjImW"
}
