{
  "folder": "28J16bOLplDaZb5a",
  "name": "Cavern Salt",
  "type": "loot",
  "_id": "HA0KAvr1TWo5lR5Z",
  "img": "systems/dnd5e/icons/svg/items/loot.svg",
  "system": {
    "description": {
      "value": "<p>A painful yet effective way of treating open wounds and deep cuts. This can most often be found in some of the deepest caves, near the bases of large rocks and slick walls. It can often be mistaken as a small patch of white gems at first glance. Usually glassy looking and angular, it is about the size of a sugar cube. It can be ground up and applied to wounds after harvesting.</p>",
      "chat": ""
    },
    "source": {
      "custom": "",
      "book": "AGTE",
      "page": "190",
      "license": ""
    },
    "identified": true,
    "unidentified": {
      "description": ""
    },
    "container": null,
    "quantity": 1,
    "weight": {
      "value": 0,
      "units": "lb"
    },
    "price": {
      "value": 0,
      "denomination": "gp"
    },
    "rarity": "uncommon",
    "properties": [],
    "type": {
      "value": "",
      "subtype": ""
    }
  },
  "effects": [],
  "sort": 0,
  "ownership": {
    "default": 0,
    "7AQaUVDoHuZUwVGK": 3
  },
  "flags": {},
  "_stats": {
    "compendiumSource": null,
    "duplicateSource": null,
    "coreVersion": "12.327",
    "systemId": "dnd5e",
    "systemVersion": "3.2.1",
    "createdTime": 1719302924019,
    "modifiedTime": 1719302941800,
    "lastModifiedBy": "7AQaUVDoHuZUwVGK"
  },
  "_key": "!items!HA0KAvr1TWo5lR5Z"
}
