{
  "name": "Clothing",
  "sorting": "a",
  "folder": null,
  "type": "Item",
  "_id": "VeA3pVsADdBiz7DX",
  "description": "",
  "sort": 0,
  "color": null,
  "flags": {},
  "_stats": {
    "compendiumSource": null,
    "duplicateSource": null,
    "coreVersion": "12.327",
    "systemId": "dnd5e",
    "systemVersion": "3.2.1",
    "createdTime": 1719302683311,
    "modifiedTime": 1719302683311,
    "lastModifiedBy": "7AQaUVDoHuZUwVGK"
  },
  "_key": "!folders!VeA3pVsADdBiz7DX"
}
