{
  "folder": "28J16bOLplDaZb5a",
  "name": "Low Tassel",
  "type": "loot",
  "_id": "dLnNpzJTmMPWcz2i",
  "img": "systems/dnd5e/icons/svg/items/loot.svg",
  "system": {
    "description": {
      "value": "<p>A hanging yellow seed that grows at the bottom of certain bushes. It is often associated with short term memory assistance. When eaten on its own, it has been known to boost the recall of recent events. When taken in large quantities or used in potions, it can give a near-perfect recreation of a memory. Perfect for trying to remember small details or finding lost keys.</p>",
      "chat": ""
    },
    "source": {
      "custom": "",
      "book": "AGTE",
      "page": "190",
      "license": ""
    },
    "identified": true,
    "unidentified": {
      "description": ""
    },
    "container": null,
    "quantity": 1,
    "weight": {
      "value": 0,
      "units": "lb"
    },
    "price": {
      "value": 0,
      "denomination": "gp"
    },
    "rarity": "uncommon",
    "properties": [],
    "type": {
      "value": "",
      "subtype": ""
    }
  },
  "effects": [],
  "sort": 0,
  "ownership": {
    "default": 0,
    "7AQaUVDoHuZUwVGK": 3
  },
  "flags": {},
  "_stats": {
    "compendiumSource": null,
    "duplicateSource": null,
    "coreVersion": "12.327",
    "systemId": "dnd5e",
    "systemVersion": "3.2.1",
    "createdTime": 1719302873328,
    "modifiedTime": 1719302888318,
    "lastModifiedBy": "7AQaUVDoHuZUwVGK"
  },
  "_key": "!items!dLnNpzJTmMPWcz2i"
}
