{
  "name": "Outdated Clothing",
  "type": "equipment",
  "img": "icons/equipment/chest/shirt-collared-brown.webp",
  "system": {
    "description": {
      "value": "<p>A set of clothes worn by people from a bygone era.</p>",
      "chat": ""
    },
    "source": {
      "custom": "",
      "book": "Adventurer's Guide to Theria - Ellara",
      "page": "",
      "license": ""
    },
    "quantity": 1,
    "weight": {
      "value": 4,
      "units": "lb"
    },
    "price": {
      "value": 2,
      "denomination": "gp"
    },
    "attunement": "",
    "equipped": false,
    "rarity": "",
    "identified": true,
    "activation": {
      "type": "none",
      "cost": null,
      "condition": ""
    },
    "duration": {
      "value": "",
      "units": ""
    },
    "cover": null,
    "target": {
      "value": "",
      "width": null,
      "units": "",
      "type": "",
      "prompt": true
    },
    "range": {
      "value": null,
      "long": null,
      "units": ""
    },
    "uses": {
      "value": null,
      "max": "",
      "per": null,
      "recovery": "",
      "prompt": true
    },
    "consume": {
      "type": "",
      "target": null,
      "amount": null,
      "scale": false
    },
    "ability": null,
    "actionType": "",
    "chatFlavor": "",
    "critical": {
      "threshold": null,
      "damage": ""
    },
    "damage": {
      "parts": [],
      "versatile": ""
    },
    "formula": "",
    "save": {
      "ability": "",
      "dc": null,
      "scaling": "spell"
    },
    "armor": {
      "value": null,
      "dex": null,
      "magicalBonus": null
    },
    "hp": {
      "value": 0,
      "max": 0,
      "dt": null,
      "conditions": ""
    },
    "speed": {
      "value": null,
      "conditions": ""
    },
    "strength": null,
    "proficient": null,
    "type": {
      "value": "clothing",
      "baseItem": ""
    },
    "unidentified": {
      "description": ""
    },
    "container": null,
    "crewed": false,
    "properties": [],
    "attack": {
      "bonus": "",
      "flat": false
    },
    "enchantment": null,
    "summons": null,
    "attuned": false
  },
  "effects": [],
  "folder": "VeA3pVsADdBiz7DX",
  "flags": {},
  "_stats": {
    "compendiumSource": null,
    "duplicateSource": null,
    "coreVersion": "12.327",
    "systemId": "dnd5e",
    "systemVersion": "3.2.1",
    "createdTime": 1719259950809,
    "modifiedTime": 1719302685871,
    "lastModifiedBy": "7AQaUVDoHuZUwVGK"
  },
  "_id": "FXzsjDVoFNeP4gCw",
  "sort": 100000,
  "ownership": {
    "default": 0,
    "7AQaUVDoHuZUwVGK": 3
  },
  "_key": "!items!FXzsjDVoFNeP4gCw"
}
