{
  "folder": "28J16bOLplDaZb5a",
  "name": "Willow Mint",
  "type": "loot",
  "_id": "p1CTY1w7kIbaZjZQ",
  "img": "systems/dnd5e/icons/svg/items/loot.svg",
  "system": {
    "description": {
      "value": "<p>This jagged looking leaf is often used to treat fatigue and grant a slight energy boost to travelers. When mixed into a potion it is much more effective and can be a great way to stay awake on guard duty</p>",
      "chat": ""
    },
    "source": {
      "book": "AGTE",
      "page": "190",
      "custom": "",
      "license": ""
    },
    "identified": true,
    "unidentified": {
      "description": ""
    },
    "container": null,
    "quantity": 1,
    "weight": {
      "value": 0,
      "units": "lb"
    },
    "price": {
      "value": 0,
      "denomination": "gp"
    },
    "rarity": "common",
    "properties": [],
    "type": {
      "value": "",
      "subtype": ""
    }
  },
  "effects": [],
  "sort": 0,
  "ownership": {
    "default": 0,
    "7AQaUVDoHuZUwVGK": 3
  },
  "flags": {},
  "_stats": {
    "compendiumSource": null,
    "duplicateSource": null,
    "coreVersion": "12.327",
    "systemId": "dnd5e",
    "systemVersion": "3.2.1",
    "createdTime": 1719302808492,
    "modifiedTime": 1719302818890,
    "lastModifiedBy": "7AQaUVDoHuZUwVGK"
  },
  "_key": "!items!p1CTY1w7kIbaZjZQ"
}
