{
  "name": "Critical Fumbles",
  "_id": "VDFHlVk9NwjElYJD",
  "img": "icons/svg/d20-grey.svg",
  "description": "",
  "results": [
    {
      "type": "text",
      "weight": 1,
      "range": [
        5,
        5
      ],
      "drawn": false,
      "_id": "YH4C3aN5tRBdYi2G",
      "text": "<b>Mentally Scarred</b><br />You have seen terrible things in battle. Things that would crush a lesser person. It will surely give you nightmares tonight. At the time of the nightmares, roll a Wisdom saving throw.",
      "img": "icons/svg/d20-black.svg",
      "documentId": null,
      "flags": {},
      "documentCollection": "RollTable",
      "_key": "!tables.results!VDFHlVk9NwjElYJD.YH4C3aN5tRBdYi2G"
    },
    {
      "type": "pack",
      "documentCollection": "theria-ellara.theria-ellara-misc-tables",
      "weight": 1,
      "range": [
        5,
        5
      ],
      "drawn": false,
      "text": "Mentally Scarred",
      "documentId": "IaOB30TtPtX6zRig",
      "img": "icons/svg/d20-grey.svg",
      "_id": "PFAS8zFfioCJbKDN",
      "flags": {},
      "_key": "!tables.results!VDFHlVk9NwjElYJD.PFAS8zFfioCJbKDN"
    },
    {
      "type": "text",
      "documentCollection": "theria-ellara.theria-ellara-misc-tables",
      "weight": 1,
      "range": [
        2,
        2
      ],
      "drawn": false,
      "_id": "lkjOyACEyGkSS1yQ",
      "text": "<b>Worst Luck in Theria</b><br />Your GM will choose a major weather or natural event and put it into play immediately.",
      "img": "icons/svg/d20-black.svg",
      "documentId": null,
      "flags": {},
      "_key": "!tables.results!VDFHlVk9NwjElYJD.lkjOyACEyGkSS1yQ"
    },
    {
      "type": "text",
      "documentCollection": "theria-ellara.theria-ellara-misc-tables",
      "weight": 1,
      "range": [
        3,
        3
      ],
      "drawn": false,
      "_id": "yRpkvpKhbvFJZsNM",
      "text": "<b>Spirit Broken</b><br />Death saving throws during this combat are at a disadvantage for the roller.",
      "img": "icons/svg/d20-black.svg",
      "documentId": null,
      "flags": {},
      "_key": "!tables.results!VDFHlVk9NwjElYJD.yRpkvpKhbvFJZsNM"
    },
    {
      "type": "text",
      "documentCollection": "theria-ellara.theria-ellara-misc-tables",
      "weight": 1,
      "range": [
        4,
        4
      ],
      "drawn": false,
      "_id": "LtGfRhcjiemUCrlI",
      "text": "<b>Exposed Flesh</b><br />The next bit of damage done to you will be done every round until you are healed.",
      "img": "icons/svg/d20-black.svg",
      "documentId": null,
      "flags": {},
      "_key": "!tables.results!VDFHlVk9NwjElYJD.LtGfRhcjiemUCrlI"
    },
    {
      "type": "text",
      "documentCollection": "theria-ellara.theria-ellara-misc-tables",
      "weight": 1,
      "range": [
        1,
        1
      ],
      "drawn": false,
      "_id": "dyERcZl7BCfzBGAG",
      "text": "<b>Your Time has Come</b><br />The God of Death has decided that your time has come. The other gods have forsaken you. This can manifest in many ways. Once a week you will roll on a special table and follow its directions. This represents your character’s “bad luck” and The God of Death’s desire to call you home. You will do this every week until your character’s life ends.",
      "img": "icons/svg/d20-black.svg",
      "documentId": null,
      "flags": {},
      "_key": "!tables.results!VDFHlVk9NwjElYJD.dyERcZl7BCfzBGAG"
    },
    {
      "type": "text",
      "documentCollection": "theria-ellara.theria-ellara-misc-tables",
      "weight": 1,
      "range": [
        6,
        6
      ],
      "drawn": false,
      "_id": "M9TtrNjfzrWNxfoE",
      "text": "<b>Pulled Muscle</b><br />You are stunned until the end of your next turn.",
      "img": "icons/svg/d20-black.svg",
      "documentId": null,
      "flags": {},
      "_key": "!tables.results!VDFHlVk9NwjElYJD.M9TtrNjfzrWNxfoE"
    },
    {
      "type": "text",
      "documentCollection": "theria-ellara.theria-ellara-misc-tables",
      "weight": 1,
      "range": [
        7,
        7
      ],
      "drawn": false,
      "_id": "KvC6bg7vIAZryFRc",
      "text": "<b>Mortified</b><br />You do something truly embarrassing within view of your target. You receive a -2 penalty to attack rolls against target until you successfully hit the target with an attack.",
      "img": "icons/svg/d20-black.svg",
      "documentId": null,
      "flags": {},
      "_key": "!tables.results!VDFHlVk9NwjElYJD.KvC6bg7vIAZryFRc"
    },
    {
      "type": "text",
      "documentCollection": "theria-ellara.theria-ellara-misc-tables",
      "weight": 1,
      "range": [
        8,
        8
      ],
      "drawn": false,
      "_id": "uWqqjtGf2TZGiJym",
      "text": "<b>Counterattack</b><br />The target automatically hits you with a basic attack. If this action is impossible, your original target gains advantage on their next attack.",
      "img": "icons/svg/d20-black.svg",
      "documentId": null,
      "flags": {},
      "_key": "!tables.results!VDFHlVk9NwjElYJD.uWqqjtGf2TZGiJym"
    },
    {
      "type": "text",
      "documentCollection": "theria-ellara.theria-ellara-misc-tables",
      "weight": 1,
      "range": [
        9,
        9
      ],
      "drawn": false,
      "_id": "f0d1R8of9ZVsJmbP",
      "text": "<b>I'm Sorry</b><br />You hit an ally with a basic attack. If this action is impossible, your original target gains advantage on their next attack.",
      "img": "icons/svg/d20-black.svg",
      "documentId": null,
      "flags": {},
      "_key": "!tables.results!VDFHlVk9NwjElYJD.f0d1R8of9ZVsJmbP"
    },
    {
      "type": "text",
      "documentCollection": "theria-ellara.theria-ellara-misc-tables",
      "weight": 1,
      "range": [
        10,
        10
      ],
      "drawn": false,
      "_id": "ePlJdYxidIRNwzE4",
      "text": "<b>Critical Counter</b><br />The target critically hits you with a basic attack, gains advantage on their next attack, and does double damage if they hit on their next attack.",
      "img": "icons/svg/d20-black.svg",
      "documentId": null,
      "flags": {},
      "_key": "!tables.results!VDFHlVk9NwjElYJD.ePlJdYxidIRNwzE4"
    },
    {
      "type": "text",
      "documentCollection": "theria-ellara.theria-ellara-misc-tables",
      "weight": 1,
      "range": [
        11,
        11
      ],
      "drawn": false,
      "_id": "Yl7QgGuc6eUi2oUy",
      "text": "<b>I'm So Sorry</b><br />You critically hit an ally with a basic attack. If this action is impossible, then you lose your weapon and fling it at them.",
      "img": "icons/svg/d20-black.svg",
      "documentId": null,
      "flags": {},
      "_key": "!tables.results!VDFHlVk9NwjElYJD.Yl7QgGuc6eUi2oUy"
    },
    {
      "type": "text",
      "documentCollection": "theria-ellara.theria-ellara-misc-tables",
      "weight": 1,
      "range": [
        12,
        12
      ],
      "drawn": false,
      "_id": "0oXGPqznxbbgJAGz",
      "text": "<b>Well... Crap</b><br />You critically hit yourself with the same attack you fumbled with, receiving all negative conditions and effects of the attack.",
      "img": "icons/svg/d20-black.svg",
      "documentId": null,
      "flags": {},
      "_key": "!tables.results!VDFHlVk9NwjElYJD.0oXGPqznxbbgJAGz"
    },
    {
      "type": "text",
      "documentCollection": "theria-ellara.theria-ellara-misc-tables",
      "weight": 1,
      "range": [
        13,
        13
      ],
      "drawn": false,
      "_id": "WGNxhJiqIE1VkTkh",
      "text": "<b>Ankle Twist</b><br />You twist your ankle and have half movement speed and cannot charge for [[/r 1d4+1]] rounds.",
      "img": "icons/svg/d20-black.svg",
      "documentId": null,
      "flags": {},
      "_key": "!tables.results!VDFHlVk9NwjElYJD.WGNxhJiqIE1VkTkh"
    },
    {
      "type": "text",
      "documentCollection": "theria-ellara.theria-ellara-misc-tables",
      "weight": 1,
      "range": [
        14,
        14
      ],
      "drawn": false,
      "_id": "Li6qjHbPmJ1ZBOw9",
      "text": "<b>Dislocation</b><br />A forceful pop in your shoulder is heard as you feel your arm go limp. The arm you used to make the attack is incapacitated for [[/r 1d4+1]] rounds, or until it is healed.",
      "img": "icons/svg/d20-black.svg",
      "documentId": null,
      "flags": {},
      "_key": "!tables.results!VDFHlVk9NwjElYJD.Li6qjHbPmJ1ZBOw9"
    },
    {
      "type": "text",
      "documentCollection": "theria-ellara.theria-ellara-misc-tables",
      "weight": 1,
      "range": [
        15,
        15
      ],
      "drawn": false,
      "_id": "r4hi1IZnCAwppcfN",
      "text": "<b>Trick Knee</b><br />Your knee hyperextends awkwardly. Your movement speed is reduced to 10 ft. (3 m) and cannot charge for [[/r 1d4+1]] rounds.",
      "img": "icons/svg/d20-black.svg",
      "documentId": null,
      "flags": {},
      "_key": "!tables.results!VDFHlVk9NwjElYJD.r4hi1IZnCAwppcfN"
    },
    {
      "type": "text",
      "documentCollection": "theria-ellara.theria-ellara-misc-tables",
      "weight": 1,
      "range": [
        16,
        16
      ],
      "drawn": false,
      "_id": "PV8gsBbRHe6pGL3C",
      "text": "<b>Wardrobe Malfunction</b><br />In an embarrassing move, you cut loose part of your armor and receive a -4 penalty until armor is fixed. Fixing the armor will require 1 round of performing no other action.",
      "img": "icons/svg/d20-black.svg",
      "documentId": null,
      "flags": {},
      "_key": "!tables.results!VDFHlVk9NwjElYJD.PV8gsBbRHe6pGL3C"
    },
    {
      "type": "text",
      "documentCollection": "theria-ellara.theria-ellara-misc-tables",
      "weight": 1,
      "range": [
        17,
        17
      ],
      "drawn": false,
      "_id": "FOltwW2sH824divU",
      "text": "<b>Staggering in Paid</b><br />Your opponent parries your awkward attack that causes you to hit yourself in a sensitive area. You have no movement speed and have disadvantage to all actions for [[/r 1d4]] rounds.",
      "img": "icons/svg/d20-black.svg",
      "documentId": null,
      "flags": {},
      "_key": "!tables.results!VDFHlVk9NwjElYJD.FOltwW2sH824divU"
    },
    {
      "type": "text",
      "documentCollection": "theria-ellara.theria-ellara-misc-tables",
      "weight": 1,
      "range": [
        18,
        18
      ],
      "drawn": false,
      "_id": "D5MDXd4vxwcTynNZ",
      "text": "<b>Slippery Hands</b><br />You throw your weapon/implement 2d10 ft. (0.5 m) in a random direction.",
      "img": "icons/svg/d20-black.svg",
      "documentId": null,
      "flags": {},
      "_key": "!tables.results!VDFHlVk9NwjElYJD.D5MDXd4vxwcTynNZ"
    },
    {
      "type": "text",
      "documentCollection": "theria-ellara.theria-ellara-misc-tables",
      "weight": 1,
      "range": [
        19,
        19
      ],
      "drawn": false,
      "_id": "VGVM1fnoSuTXIg78",
      "text": "<b>Oopsy Daisy</b><br />You fall prone.",
      "img": "icons/svg/d20-black.svg",
      "documentId": null,
      "flags": {},
      "_key": "!tables.results!VDFHlVk9NwjElYJD.VGVM1fnoSuTXIg78"
    },
    {
      "type": "text",
      "documentCollection": "theria-ellara.theria-ellara-misc-tables",
      "weight": 1,
      "range": [
        20,
        20
      ],
      "drawn": false,
      "_id": "3byFps3zJs0gJhmc",
      "text": "<b>Bloody Mask</b><br />You hit yourself in the head causing a minor flesh wound (4 damage) and you are blinded by blood flowing into your eyes for [[/r 1d4]] rounds.",
      "img": "icons/svg/d20-black.svg",
      "documentId": null,
      "flags": {},
      "_key": "!tables.results!VDFHlVk9NwjElYJD.3byFps3zJs0gJhmc"
    }
  ],
  "replacement": true,
  "displayRoll": true,
  "folder": "IvyNnShZZsEAJTlP",
  "sort": 100000,
  "ownership": {
    "default": 0,
    "jRuzd19UqO72fSRx": 3
  },
  "flags": {},
  "_stats": {
    "compendiumSource": null,
    "duplicateSource": null,
    "coreVersion": "12.331",
    "systemId": "dnd5e",
    "systemVersion": "3.3.1",
    "createdTime": 1727760147142,
    "modifiedTime": 1727763620899,
    "lastModifiedBy": "jRuzd19UqO72fSRx"
  },
  "formula": "1d20",
  "_key": "!tables!VDFHlVk9NwjElYJD"
}
