{
  "name": "Critical Hits",
  "_id": "7udqGv3Ku87RgMSC",
  "img": "icons/svg/d20-grey.svg",
  "description": "<p>On a natural 20, roll a d6; on a 5 or 6, roll on this table and follow the result.</p>",
  "results": [
    {
      "type": "text",
      "documentCollection": "theria-ellara.theria-ellara-mundane-items",
      "weight": 1,
      "range": [
        1,
        1
      ],
      "drawn": false,
      "_id": "oGkpUTyI1lsSWkkC",
      "text": "<b>Powerful Shove</b><br />In addition to standard critical hit damage, you knock the target prone.",
      "img": "icons/svg/d20-black.svg",
      "documentId": null,
      "flags": {},
      "_key": "!tables.results!7udqGv3Ku87RgMSC.oGkpUTyI1lsSWkkC"
    },
    {
      "type": "text",
      "documentCollection": "theria-ellara.theria-ellara-mundane-items",
      "weight": 1,
      "range": [
        2,
        2
      ],
      "drawn": false,
      "_id": "3WOAhXfmNSzIU163",
      "text": "<b>Simply Stunning</b><br />In addition to standard critical hit damage, your target is stunned until the end of its next turn.",
      "img": "icons/svg/d20-black.svg",
      "documentId": null,
      "flags": {},
      "_key": "!tables.results!7udqGv3Ku87RgMSC.3WOAhXfmNSzIU163"
    },
    {
      "type": "text",
      "documentCollection": "theria-ellara.theria-ellara-mundane-items",
      "weight": 1,
      "range": [
        3,
        3
      ],
      "drawn": false,
      "_id": "MY4hZ6c8GOoSJTXl",
      "text": "<b>Turn the Tide</b><br />In addition to standard critical hit damage to your target, you gain combat advantage against all enemies on the battlefield until the end of your next turn.",
      "img": "icons/svg/d20-black.svg",
      "documentId": null,
      "flags": {},
      "_key": "!tables.results!7udqGv3Ku87RgMSC.MY4hZ6c8GOoSJTXl"
    },
    {
      "type": "text",
      "documentCollection": "theria-ellara.theria-ellara-mundane-items",
      "weight": 1,
      "range": [
        4,
        4
      ],
      "drawn": false,
      "_id": "PF2ctVUn9OsACSEN",
      "text": "<b>Go for the Eyes</b><br />In addition to standard critical hit damage, your target is blinded until the end of its next turn. The target rolls a [[/r 1d20 + @abilities.con.save]]{Constitution save} with a DC of 11. On a failure, lose an eye permanently. There is a 50% chance of it being right or left.",
      "img": "icons/svg/d20-black.svg",
      "documentId": null,
      "flags": {},
      "_key": "!tables.results!7udqGv3Ku87RgMSC.PF2ctVUn9OsACSEN"
    },
    {
      "type": "text",
      "documentCollection": "theria-ellara.theria-ellara-mundane-items",
      "weight": 1,
      "range": [
        5,
        5
      ],
      "drawn": false,
      "_id": "F8CzpjkrLd1cBAv0",
      "text": "<b>Hobble</b><br />In addition to standard critical damage, your target’s leg is sliced at the knee (slashing weapon) and falls prone, or knee is broken (blunt weapon) and movement reduced to 10 ft. (3 m) speed (in combat). The target rolls a [[/r 1d20 + @abilities.con.save]]{Constitution save} with a DC of 12. On a failure the target will have permanent limp and be reduced to 20 ft. (6 m) speed.",
      "img": "icons/svg/d20-black.svg",
      "documentId": null,
      "flags": {},
      "_key": "!tables.results!7udqGv3Ku87RgMSC.F8CzpjkrLd1cBAv0"
    },
    {
      "type": "text",
      "documentCollection": "theria-ellara.theria-ellara-mundane-items",
      "weight": 1,
      "range": [
        6,
        6
      ],
      "drawn": false,
      "_id": "iaEwsGdjL73fPRnw",
      "text": "<b>Strike Now!</b><br />Any allies adjacent to you get advantage on attacks against your target until the end of your next turn.",
      "img": "icons/svg/d20-black.svg",
      "documentId": null,
      "flags": {},
      "_key": "!tables.results!7udqGv3Ku87RgMSC.iaEwsGdjL73fPRnw"
    },
    {
      "type": "text",
      "documentCollection": "theria-ellara.theria-ellara-mundane-items",
      "weight": 1,
      "range": [
        7,
        7
      ],
      "drawn": false,
      "_id": "Su2c0V3u4AIlYOGt",
      "text": "<b>Parry</b><br />In addition to standard critical hit damage to your target, you gain +2 to your AC against attacks from the target until the end of your next turn.",
      "img": "icons/svg/d20-black.svg",
      "documentId": null,
      "flags": {},
      "_key": "!tables.results!7udqGv3Ku87RgMSC.Su2c0V3u4AIlYOGt"
    },
    {
      "type": "text",
      "documentCollection": "theria-ellara.theria-ellara-mundane-items",
      "weight": 1,
      "range": [
        8,
        8
      ],
      "drawn": false,
      "_id": "9PaBW5Rt6Y1l0DhI",
      "text": "<b>Gaping Wound</b><br />In addition to standard critical hit damage, the target takes ongoing 5 + half your level damage (round up). This effect ends when the target is healed.",
      "img": "icons/svg/d20-black.svg",
      "documentId": null,
      "flags": {},
      "_key": "!tables.results!7udqGv3Ku87RgMSC.9PaBW5Rt6Y1l0DhI"
    },
    {
      "type": "text",
      "documentCollection": "theria-ellara.theria-ellara-mundane-items",
      "weight": 1,
      "range": [
        9,
        9
      ],
      "drawn": false,
      "_id": "YuT8Bj3qP5bXq0NN",
      "text": "<b>Unreliable Armor</b><br />In addition to standard critical hit damage, the target’s AC is reduced by 2 for the remainder of the encounter. If the target has no armor, you and all allies have a +2 to attack for the remainder of the encounter against this target.",
      "img": "icons/svg/d20-black.svg",
      "documentId": null,
      "flags": {},
      "_key": "!tables.results!7udqGv3Ku87RgMSC.YuT8Bj3qP5bXq0NN"
    },
    {
      "type": "text",
      "documentCollection": "theria-ellara.theria-ellara-mundane-items",
      "weight": 1,
      "range": [
        10,
        10
      ],
      "drawn": false,
      "_id": "9B0g6ByG95CJQff4",
      "text": "<b>Opportunity</b><br />In addition to standard critical hit damage to your target, you may take an extra standard action this turn.",
      "img": "icons/svg/d20-black.svg",
      "documentId": null,
      "flags": {},
      "_key": "!tables.results!7udqGv3Ku87RgMSC.9B0g6ByG95CJQff4"
    },
    {
      "type": "text",
      "documentCollection": "theria-ellara.theria-ellara-mundane-items",
      "weight": 1,
      "range": [
        11,
        11
      ],
      "drawn": false,
      "_id": "WMlcd28YACLdPWpW",
      "text": "<b>Knockout Blow</b><br />In addition to standard critical hit damage, you knock the target unconscious. A [[/r 1d20 + @abilities.con.save]]{Constitution save} with a DC of 10 ends this effect. If the target takes damage, this also ends this effect.",
      "img": "icons/svg/d20-black.svg",
      "documentId": null,
      "flags": {},
      "_key": "!tables.results!7udqGv3Ku87RgMSC.WMlcd28YACLdPWpW"
    },
    {
      "type": "text",
      "documentCollection": "theria-ellara.theria-ellara-mundane-items",
      "weight": 1,
      "range": [
        12,
        12
      ],
      "drawn": false,
      "_id": "DqttoBRRZp1i3TkO",
      "text": "<b>Eviscerate</b><br />You do two standard critical hits to the target.",
      "img": "icons/svg/d20-black.svg",
      "documentId": null,
      "flags": {},
      "_key": "!tables.results!7udqGv3Ku87RgMSC.DqttoBRRZp1i3TkO"
    },
    {
      "type": "text",
      "documentCollection": "theria-ellara.theria-ellara-mundane-items",
      "weight": 1,
      "range": [
        13,
        13
      ],
      "drawn": false,
      "_id": "a4D1vDHTTVdZ3XQB",
      "text": "<b>Lucky as Hell</b><br />The stress of battle has gotten to your target. If humanoid and challenge rating is at your level or lower, they suffer a massive heart attack and drop to zero hit points on the spot. If not, then you deal terrible damage in the form of half their current hit points.",
      "img": "icons/svg/d20-black.svg",
      "documentId": null,
      "flags": {},
      "_key": "!tables.results!7udqGv3Ku87RgMSC.a4D1vDHTTVdZ3XQB"
    },
    {
      "type": "text",
      "documentCollection": "theria-ellara.theria-ellara-mundane-items",
      "weight": 1,
      "range": [
        14,
        14
      ],
      "drawn": false,
      "_id": "lJ1xHZzvfLHvxS5l",
      "text": "<b>Gut Check</b><br />Deal the maximum amount of damage possible with this attack.",
      "img": "icons/svg/d20-black.svg",
      "documentId": null,
      "flags": {},
      "_key": "!tables.results!7udqGv3Ku87RgMSC.lJ1xHZzvfLHvxS5l"
    },
    {
      "type": "text",
      "documentCollection": "theria-ellara.theria-ellara-mundane-items",
      "weight": 1,
      "range": [
        15,
        15
      ],
      "drawn": false,
      "_id": "nOcYzDPRxlK3hK6c",
      "text": "<b>The Mouse Could Sue Us</b><br />The target’s hand is removed at the wrist if using a slashing weapon, broken if using a blunt weapon, pierced if using a piercing weapon, or if a spell was used some effect to wrist related to the type of damage. There’s a 50% chance of either main or offhand. The wrist is incapacitated no matter the result. If this action is not possible due to the nature of the target, then in addition to standard critical damage the target takes double damage instead.",
      "img": "icons/svg/d20-black.svg",
      "documentId": null,
      "flags": {},
      "_key": "!tables.results!7udqGv3Ku87RgMSC.nOcYzDPRxlK3hK6c"
    },
    {
      "type": "text",
      "documentCollection": "theria-ellara.theria-ellara-mundane-items",
      "weight": 1,
      "range": [
        16,
        16
      ],
      "drawn": false,
      "_id": "Z9766RIE0ae15Za8",
      "text": "<b>Gusher</b><br />The target suffers the damage rolled for this attack/ spell each round until healed.",
      "img": "icons/svg/d20-black.svg",
      "documentId": null,
      "flags": {},
      "_key": "!tables.results!7udqGv3Ku87RgMSC.Z9766RIE0ae15Za8"
    },
    {
      "type": "text",
      "documentCollection": "theria-ellara.theria-ellara-mundane-items",
      "weight": 1,
      "range": [
        17,
        17
      ],
      "drawn": false,
      "_id": "QEW8PGwxKqDV3B6J",
      "text": "<b>Concussion</b><br />You smash your target in the head causing massive damage. In addition to the standard critical damage, you give the enemy a concussion. The target is unconscious and must roll a [[/r 1d20 + @abilities.con.save]]{Constitution save} with a DC of 12. On a failure, they roll [[/r 1d4]] and lose that much in Intelligence permanently.",
      "img": "icons/svg/d20-black.svg",
      "documentId": null,
      "flags": {},
      "_key": "!tables.results!7udqGv3Ku87RgMSC.QEW8PGwxKqDV3B6J"
    },
    {
      "type": "text",
      "documentCollection": "theria-ellara.theria-ellara-mundane-items",
      "weight": 1,
      "range": [
        18,
        18
      ],
      "drawn": false,
      "_id": "nDuJETnhieFAjzmG",
      "text": "<b>War Cry</b><br />All allies that can see you gain inspiration if they do not already have it.",
      "img": "icons/svg/d20-black.svg",
      "documentId": null,
      "flags": {},
      "_key": "!tables.results!7udqGv3Ku87RgMSC.nDuJETnhieFAjzmG"
    },
    {
      "type": "text",
      "documentCollection": "theria-ellara.theria-ellara-mundane-items",
      "weight": 1,
      "range": [
        19,
        19
      ],
      "drawn": false,
      "_id": "EwvJnLtBSDtQ7RPH",
      "text": "<b>Body Blow</b><br />In addition to standard critical damage, your target’s lungs are injured. They move at half speed for the next 1d4 rounds and receive a -2 penalty to all attacks for that duration.",
      "img": "icons/svg/d20-black.svg",
      "documentId": null,
      "flags": {},
      "_key": "!tables.results!7udqGv3Ku87RgMSC.EwvJnLtBSDtQ7RPH"
    },
    {
      "type": "text",
      "documentCollection": "theria-ellara.theria-ellara-mundane-items",
      "weight": 1,
      "range": [
        20,
        20
      ],
      "drawn": false,
      "_id": "VndUgHAJR8DvG1AS",
      "text": "<b>Fatal Blow</b><br />You deal a terrible blow to your target. They instantly drop to 0 hit points and must roll [[/r 1d20]]. On a 15 or higher, they cling to life but with 2 failed death saving throws. On a 14 or lower their wounds were too great and they perish.",
      "img": "icons/svg/d20-black.svg",
      "documentId": null,
      "flags": {},
      "_key": "!tables.results!7udqGv3Ku87RgMSC.VndUgHAJR8DvG1AS"
    }
  ],
  "replacement": true,
  "displayRoll": true,
  "folder": "IvyNnShZZsEAJTlP",
  "sort": 200000,
  "ownership": {
    "default": 0,
    "jRuzd19UqO72fSRx": 3
  },
  "flags": {},
  "_stats": {
    "compendiumSource": null,
    "duplicateSource": null,
    "coreVersion": "12.331",
    "systemId": "dnd5e",
    "systemVersion": "3.3.1",
    "createdTime": 1727759189559,
    "modifiedTime": 1727763622487,
    "lastModifiedBy": "jRuzd19UqO72fSRx"
  },
  "formula": "1d20",
  "_key": "!tables!7udqGv3Ku87RgMSC"
}
