{
  "name": "Raise Dead",
  "img": "icons/svg/d20-grey.svg",
  "description": "",
  "results": [
    {
      "type": "text",
      "weight": 1,
      "range": [
        1,
        3
      ],
      "drawn": false,
      "_id": "cMrsWKoBw8jVPozm",
      "text": "The spell fails to bring the target back to life.",
      "img": "icons/svg/d20-black.svg",
      "documentId": null,
      "flags": {},
      "_key": "!tables.results!IJEyc2yQjy5PUMXL.cMrsWKoBw8jVPozm"
    },
    {
      "type": "text",
      "weight": 1,
      "range": [
        4,
        4
      ],
      "drawn": false,
      "_id": "ExHARonycl5aTyZM",
      "text": "The target suffers from incurable madness and receives the following effect.",
      "img": "icons/svg/d20-black.svg",
      "documentId": null,
      "flags": {},
      "_key": "!tables.results!IJEyc2yQjy5PUMXL.ExHARonycl5aTyZM"
    },
    {
      "type": "text",
      "weight": 1,
      "range": [
        5,
        10
      ],
      "drawn": false,
      "_id": "ChSa5nAJ04QB3lxG",
      "text": "The target suffers from indefinite madness and receives the following effect.",
      "img": "icons/svg/d20-black.svg",
      "documentId": null,
      "flags": {},
      "_key": "!tables.results!IJEyc2yQjy5PUMXL.ChSa5nAJ04QB3lxG"
    },
    {
      "type": "text",
      "weight": 1,
      "range": [
        11,
        14
      ],
      "drawn": false,
      "_id": "XbdYyhgVvp6ck7ZP",
      "text": "The target suffers from long-term madness and receives the following effect.",
      "img": "icons/svg/d20-black.svg",
      "documentId": null,
      "flags": {},
      "_key": "!tables.results!IJEyc2yQjy5PUMXL.XbdYyhgVvp6ck7ZP"
    },
    {
      "type": "text",
      "weight": 1,
      "range": [
        15,
        17
      ],
      "drawn": false,
      "_id": "ma3sLNxtVWyBe2qd",
      "text": "The target suffers from short-term madness and receives the following effect.",
      "img": "icons/svg/d20-black.svg",
      "documentId": null,
      "flags": {},
      "_key": "!tables.results!IJEyc2yQjy5PUMXL.ma3sLNxtVWyBe2qd"
    },
    {
      "type": "text",
      "weight": 1,
      "range": [
        18,
        20
      ],
      "drawn": false,
      "_id": "WYIX7lLWUeXeOY9N",
      "text": "The target suffers no ill effects to their mental status.",
      "img": "icons/svg/d20-black.svg",
      "documentId": null,
      "flags": {},
      "_key": "!tables.results!IJEyc2yQjy5PUMXL.WYIX7lLWUeXeOY9N"
    },
    {
      "type": "pack",
      "documentCollection": "theria-ellara.theria-ellara-misc-tables",
      "weight": 1,
      "range": [
        4,
        4
      ],
      "drawn": false,
      "text": "Incurable Madness",
      "documentId": "sQDZj3WttPnsgC9X",
      "img": "icons/svg/d20-grey.svg",
      "_id": "Q4qdqm8Jf3xlsW83",
      "flags": {},
      "_key": "!tables.results!IJEyc2yQjy5PUMXL.Q4qdqm8Jf3xlsW83"
    },
    {
      "type": "pack",
      "documentCollection": "theria-ellara.theria-ellara-misc-tables",
      "weight": 1,
      "range": [
        5,
        10
      ],
      "drawn": false,
      "text": "Indefinite Madness",
      "documentId": "M7JekrQFDNxp3Jkm",
      "img": "icons/svg/d20-grey.svg",
      "_id": "2b6wPWDLu3bVhcER",
      "flags": {},
      "_key": "!tables.results!IJEyc2yQjy5PUMXL.2b6wPWDLu3bVhcER"
    },
    {
      "type": "pack",
      "documentCollection": "theria-ellara.theria-ellara-misc-tables",
      "weight": 1,
      "range": [
        11,
        14
      ],
      "drawn": false,
      "text": "Long-Term Madness",
      "documentId": "EfFiEjrL7lw59HC3",
      "img": "icons/svg/d20-grey.svg",
      "_id": "PFi1havwgWF9drB0",
      "flags": {},
      "_key": "!tables.results!IJEyc2yQjy5PUMXL.PFi1havwgWF9drB0"
    },
    {
      "type": "pack",
      "documentCollection": "theria-ellara.theria-ellara-misc-tables",
      "weight": 1,
      "range": [
        15,
        17
      ],
      "drawn": false,
      "text": "Short-Term Madness",
      "documentId": "NmE3JPE4SABaJqHc",
      "img": "icons/svg/d20-grey.svg",
      "_id": "r0RNtD8pKl9iFOGo",
      "flags": {},
      "_key": "!tables.results!IJEyc2yQjy5PUMXL.r0RNtD8pKl9iFOGo"
    }
  ],
  "replacement": true,
  "displayRoll": true,
  "folder": "z3tAaYkk6mE42Rjj",
  "ownership": {
    "default": 0,
    "jRuzd19UqO72fSRx": 3
  },
  "flags": {},
  "_stats": {
    "compendiumSource": null,
    "duplicateSource": null,
    "coreVersion": "12.331",
    "systemId": "dnd5e",
    "systemVersion": "3.3.1",
    "createdTime": 1727854265902,
    "modifiedTime": 1727854265902,
    "lastModifiedBy": "jRuzd19UqO72fSRx"
  },
  "formula": "1d20",
  "_id": "IJEyc2yQjy5PUMXL",
  "sort": 0,
  "_key": "!tables!IJEyc2yQjy5PUMXL"
}
