{
  "folder": "PKwoD3FYUBNSYB8Z",
  "name": "Short-Term Madness",
  "_id": "NmE3JPE4SABaJqHc",
  "img": "icons/svg/d20-grey.svg",
  "description": "<p>Effects last [[/r 1d10*2]] hours.</p>",
  "results": [
    {
      "type": "text",
      "weight": 1,
      "range": [
        1,
        20
      ],
      "drawn": false,
      "_id": "DTUhFJCnxCqFb09P",
      "text": "You’ve gazed at something from beyond and become paralyzed. You are essentially in shock.",
      "img": "icons/svg/d20-black.svg",
      "documentId": null,
      "flags": {},
      "_key": "!tables.results!NmE3JPE4SABaJqHc.DTUhFJCnxCqFb09P"
    },
    {
      "type": "text",
      "weight": 1,
      "range": [
        21,
        30
      ],
      "drawn": false,
      "_id": "N6mCzqPMiDDD3ge5",
      "text": "The character becomes incapacitated and spends the duration screaming, laughing, or weeping.",
      "img": "icons/svg/d20-black.svg",
      "documentId": null,
      "flags": {},
      "_key": "!tables.results!NmE3JPE4SABaJqHc.N6mCzqPMiDDD3ge5"
    },
    {
      "type": "text",
      "weight": 1,
      "range": [
        31,
        40
      ],
      "drawn": false,
      "_id": "1PcF9cWxjgB5ApwW",
      "text": "You are terrified of the dark. The shadows reach out for you and you’ll do anything to avoid them.",
      "img": "icons/svg/d20-black.svg",
      "documentId": null,
      "flags": {},
      "_key": "!tables.results!NmE3JPE4SABaJqHc.1PcF9cWxjgB5ApwW"
    },
    {
      "type": "text",
      "weight": 1,
      "range": [
        41,
        50
      ],
      "drawn": false,
      "_id": "HQcIMfuInHoc7Nou",
      "text": "You begin babbling and are incapable of normal speech or spellcasting.",
      "img": "icons/svg/d20-black.svg",
      "documentId": null,
      "flags": {},
      "_key": "!tables.results!NmE3JPE4SABaJqHc.HQcIMfuInHoc7Nou"
    },
    {
      "type": "text",
      "weight": 1,
      "range": [
        51,
        60
      ],
      "drawn": false,
      "_id": "tmVp5WvdMRbDKJYn",
      "text": "You must use your action each round to attack the nearest creature. Everyone is your enemy.",
      "img": "icons/svg/d20-black.svg",
      "documentId": null,
      "flags": {},
      "_key": "!tables.results!NmE3JPE4SABaJqHc.tmVp5WvdMRbDKJYn"
    },
    {
      "type": "text",
      "weight": 1,
      "range": [
        61,
        70
      ],
      "drawn": false,
      "_id": "g6ADUnAhJYXukeZG",
      "text": "You experience vivid hallucinations and have disadvantage on all ability checks.",
      "img": "icons/svg/d20-black.svg",
      "documentId": null,
      "flags": {},
      "_key": "!tables.results!NmE3JPE4SABaJqHc.g6ADUnAhJYXukeZG"
    },
    {
      "type": "text",
      "weight": 1,
      "range": [
        71,
        75
      ],
      "drawn": false,
      "_id": "jFwD3fi6uoCd8pPq",
      "text": "Your body feels foreign to you and things like eating, drinking, and sleeping are all actions you will avoid. Nothing feels right.",
      "img": "icons/svg/d20-black.svg",
      "documentId": null,
      "flags": {},
      "_key": "!tables.results!NmE3JPE4SABaJqHc.jFwD3fi6uoCd8pPq"
    },
    {
      "type": "text",
      "weight": 1,
      "range": [
        76,
        80
      ],
      "drawn": false,
      "_id": "BaUHLy5VYawfShtl",
      "text": "You experience an overpowering urge to eat strange things such as dirt, clothing, or garbage.",
      "img": "icons/svg/d20-black.svg",
      "documentId": null,
      "flags": {},
      "_key": "!tables.results!NmE3JPE4SABaJqHc.BaUHLy5VYawfShtl"
    },
    {
      "type": "text",
      "weight": 1,
      "range": [
        81,
        90
      ],
      "drawn": false,
      "_id": "BnlSJQ40xxl4NLXw",
      "text": "You firmly believe that you are hidden from sight no matter what.",
      "img": "icons/svg/d20-black.svg",
      "documentId": null,
      "flags": {},
      "_key": "!tables.results!NmE3JPE4SABaJqHc.BnlSJQ40xxl4NLXw"
    },
    {
      "type": "text",
      "weight": 1,
      "range": [
        91,
        100
      ],
      "drawn": false,
      "_id": "67jvbhpnsfLKAfpb",
      "text": "You need to run. You need to get away in ANY direction. Just as long as it can’t find you.",
      "img": "icons/svg/d20-black.svg",
      "documentId": null,
      "flags": {},
      "_key": "!tables.results!NmE3JPE4SABaJqHc.67jvbhpnsfLKAfpb"
    }
  ],
  "replacement": true,
  "displayRoll": true,
  "sort": 0,
  "ownership": {
    "default": 0,
    "jRuzd19UqO72fSRx": 3
  },
  "flags": {},
  "_stats": {
    "compendiumSource": null,
    "duplicateSource": null,
    "coreVersion": "12.331",
    "systemId": "dnd5e",
    "systemVersion": "3.3.1",
    "createdTime": 1727762198925,
    "modifiedTime": 1727762333246,
    "lastModifiedBy": "jRuzd19UqO72fSRx"
  },
  "formula": "1d100",
  "_key": "!tables!NmE3JPE4SABaJqHc"
}
