{
  "name": "True Resurrection",
  "_id": "B923OnLCuQkLHSYi",
  "img": "icons/svg/d20-grey.svg",
  "description": "",
  "results": [
    {
      "type": "text",
      "weight": 1,
      "range": [
        1,
        3
      ],
      "drawn": false,
      "_id": "ChSa5nAJ04QB3lxG",
      "text": "The target suffers from indefinite madness and receives the following effect.",
      "img": "icons/svg/d20-black.svg",
      "documentId": null,
      "flags": {},
      "_key": "!tables.results!B923OnLCuQkLHSYi.ChSa5nAJ04QB3lxG"
    },
    {
      "type": "text",
      "weight": 1,
      "range": [
        4,
        7
      ],
      "drawn": false,
      "_id": "XbdYyhgVvp6ck7ZP",
      "text": "The target suffers from long-term madness and receives the following effect.",
      "img": "icons/svg/d20-black.svg",
      "documentId": null,
      "flags": {},
      "_key": "!tables.results!B923OnLCuQkLHSYi.XbdYyhgVvp6ck7ZP"
    },
    {
      "type": "text",
      "weight": 1,
      "range": [
        8,
        11
      ],
      "drawn": false,
      "_id": "ma3sLNxtVWyBe2qd",
      "text": "The target suffers from short-term madness and receives the following effect.",
      "img": "icons/svg/d20-black.svg",
      "documentId": null,
      "flags": {},
      "_key": "!tables.results!B923OnLCuQkLHSYi.ma3sLNxtVWyBe2qd"
    },
    {
      "type": "text",
      "weight": 1,
      "range": [
        12,
        20
      ],
      "drawn": false,
      "_id": "WYIX7lLWUeXeOY9N",
      "text": "The target suffers no ill effects to their mental status.",
      "img": "icons/svg/d20-black.svg",
      "documentId": null,
      "flags": {},
      "_key": "!tables.results!B923OnLCuQkLHSYi.WYIX7lLWUeXeOY9N"
    },
    {
      "type": "pack",
      "documentCollection": "theria-ellara.theria-ellara-misc-tables",
      "weight": 1,
      "range": [
        1,
        3
      ],
      "drawn": false,
      "text": "Indefinite Madness",
      "documentId": "M7JekrQFDNxp3Jkm",
      "img": "icons/svg/d20-grey.svg",
      "_id": "2b6wPWDLu3bVhcER",
      "flags": {},
      "_key": "!tables.results!B923OnLCuQkLHSYi.2b6wPWDLu3bVhcER"
    },
    {
      "type": "pack",
      "documentCollection": "theria-ellara.theria-ellara-misc-tables",
      "weight": 1,
      "range": [
        4,
        7
      ],
      "drawn": false,
      "text": "Long-Term Madness",
      "documentId": "EfFiEjrL7lw59HC3",
      "img": "icons/svg/d20-grey.svg",
      "_id": "PFi1havwgWF9drB0",
      "flags": {},
      "_key": "!tables.results!B923OnLCuQkLHSYi.PFi1havwgWF9drB0"
    },
    {
      "type": "pack",
      "documentCollection": "theria-ellara.theria-ellara-misc-tables",
      "weight": 1,
      "range": [
        8,
        11
      ],
      "drawn": false,
      "text": "Short-Term Madness",
      "documentId": "NmE3JPE4SABaJqHc",
      "img": "icons/svg/d20-grey.svg",
      "_id": "r0RNtD8pKl9iFOGo",
      "flags": {},
      "_key": "!tables.results!B923OnLCuQkLHSYi.r0RNtD8pKl9iFOGo"
    }
  ],
  "replacement": true,
  "displayRoll": true,
  "folder": "z3tAaYkk6mE42Rjj",
  "sort": 100000,
  "ownership": {
    "default": 0,
    "jRuzd19UqO72fSRx": 3
  },
  "flags": {},
  "_stats": {
    "compendiumSource": null,
    "duplicateSource": null,
    "coreVersion": "12.331",
    "systemId": "dnd5e",
    "systemVersion": "3.3.1",
    "createdTime": 1727854027227,
    "modifiedTime": 1727854416546,
    "lastModifiedBy": "jRuzd19UqO72fSRx"
  },
  "formula": "1d20",
  "_key": "!tables!B923OnLCuQkLHSYi"
}
